{"status":"ok","userTier":"developer","total":49360,"startIndex":1,"pageSize":10,"currentPage":1,"pages":4936,"orderBy":"relevance","results":[{"id":"environment/2023/dec/05/global-carbon-emissions-fossil-fuels-record","type":"article","sectionId":"environment","sectionName":"Environment","webPublicationDate":"2023-12-05T05:00:35Z","webTitle":"Global carbon emissions from fossil fuels to hit record high","webUrl":"https://www.theguardian.com/environment/2023/dec/05/global-carbon-emissions-fossil-fuels-record","apiUrl":"https://content.guardianapis.com/environment/2023/dec/05/global-carbon-emissions-fossil-fuels-record","fields":{"thumbnail":"https://media.guim.co.uk/5f563fc687fafd720c1386175dec931da991a7af/0_0_3000_1800/500.jpg"},"isHosted":false,"pillarId":"pillar/news","pillarName":"News"},{"id":"environment/ng-interactive/2023/nov/20/the-great-carbon-divide-climate-chasm-rich-poor","type":"interactive","sectionId":"environment","sectionName":"Environment","webPublicationDate":"2023-11-20T00:01:04Z","webTitle":"The great carbon divide","webUrl":"https://www.theguardian.com/environment/ng-interactive/2023/nov/20/the-great-carbon-divide-climate-chasm-rich-poor","apiUrl":"https://content.guardianapis.com/environment/ng-interactive/2023/nov/20/the-great-carbon-divide-climate-chasm-rich-poor","fields":{"thumbnail":"https://media.guim.co.uk/4861845089eb0aae79f6bcc4216786378a40ca43/0_0_5000_3000/500.jpg"},"isHosted":false,"pillarId":"pillar/news","pillarName":"News"},{"id":"uk-news/2023/sep/11/orkney-islands-to-trial-electric-ferries-to-cut-carbon-emissions","type":"article","sectionId":"uk-news","sectionName":"UK news","webPublicationDate":"2023-09-11T15:43:02Z","webTitle":"Orkney islands to trial electric ferries to cut carbon emissions","webUrl":"https://www.theguardian.com/uk-news/2023/sep/11/orkney-islands-to-trial-electric-ferries-to-cut-carbon-emissions","apiUrl":"https://content.guardianapis.com/uk-news/2023/sep/11/orkney-islands-to-trial-electric-ferries-to-cut-carbon-emissions","fields":{"thumbnail":"https://media.guim.co.uk/3da1b194e2b63e0e775fd803a9cc77690aca5498/387_0_1787_1072/500.jpg"},"isHosted":false,"pillarId":"pillar/news","pillarName":"News"},{"id":"environment/2023/oct/12/climate-researcher-who-refused-to-fly-back-from-research-trip-is-sacked","type":"article","sectionId":"environment","sectionName":"Environment","webPublicationDate":"2023-10-12T12:26:57Z","webTitle":"Climate expert ‘sacked’ after refusing flight to Germany over carbon emissions","webUrl":"https://www.theguardian.com/environment/2023/oct/12/climate-researcher-who-refused-to-fly-back-from-research-trip-is-sacked","apiUrl":"https://content.guardianapis.com/environment/2023/oct/12/climate-researcher-who-refused-to-fly-back-from-research-trip-is-sacked","fields":{"thumbnail":"https://media.guim.co.uk/ca58d4b300304c706d4b43f42a798d3cfd701bfc/0_133_3872_2325/500.jpg"},"isHosted":false,"pillarId":"pillar/news","pillarName":"News"},{"id":"business/2023/nov/13/chinas-carbon-emissions-set-for-structural-decline-from-next-year","type":"article","sectionId":"business","sectionName":"Business","webPublicationDate":"2023-11-13T00:01:17Z","webTitle":"China’s carbon emissions set for structural decline from next year","webUrl":"https://www.theguardian.com/business/2023/nov/13/chinas-carbon-emissions-set-for-structural-decline-from-next-year","apiUrl":"https://content.guardianapis.com/business/2023/nov/13/chinas-carbon-emissions-set-for-structural-decline-from-next-year","fields":{"thumbnail":"https://media.guim.co.uk/77fb579588905e78a73afa34b607a1122db9b109/0_0_5472_3286/500.jpg"},"isHosted":false,"pillarId":"pillar/news","pillarName":"News"},{"id":"environment/2023/oct/05/global-carbon-emissions-electricity-peak-thinktank-report","type":"article","sectionId":"environment","sectionName":"Environment","webPublicationDate":"2023-10-04T23:01:07Z","webTitle":"Global carbon emissions from electric power may peak this year, report says","webUrl":"https://www.theguardian.com/environment/2023/oct/05/global-carbon-emissions-electricity-peak-thinktank-report","apiUrl":"https://content.guardianapis.com/environment/2023/oct/05/global-carbon-emissions-electricity-peak-thinktank-report","fields":{"thumbnail":"https://media.guim.co.uk/a7af2e03c0a6618ceb291a17394daf7b1a9ef4c3/0_204_3500_2100/500.jpg"},"isHosted":false,"pillarId":"pillar/news","pillarName":"News"},{"id":"environment/2023/oct/30/climate-crisis-carbon-emissions-budget","type":"article","sectionId":"environment","sectionName":"Environment","webPublicationDate":"2023-10-30T16:00:17Z","webTitle":"Climate crisis: carbon emissions budget is now tiny, scientists say","webUrl":"https://www.theguardian.com/environment/2023/oct/30/climate-crisis-carbon-emissions-budget","apiUrl":"https://content.guardianapis.com/environment/2023/oct/30/climate-crisis-carbon-emissions-budget","fields":{"thumbnail":"https://media.guim.co.uk/fb9df0a302d713efa23bfe306cbc49ea256caf5b/0_288_4240_2544/500.jpg"},"isHosted":false,"pillarId":"pillar/news","pillarName":"News"},{"id":"environment/2023/sep/24/how-germany-france-and-italy-compare-on-net-zero-emission-targets","type":"article","sectionId":"environment","sectionName":"Environment","webPublicationDate":"2023-09-24T09:22:51Z","webTitle":"How Germany, France and Italy compare on net zero emission targets","webUrl":"https://www.theguardian.com/environment/2023/sep/24/how-germany-france-and-italy-compare-on-net-zero-emission-targets","apiUrl":"https://content.guardianapis.com/environment/2023/sep/24/how-germany-france-and-italy-compare-on-net-zero-emission-targets","fields":{"thumbnail":"https://media.guim.co.uk/95ed5d9919a49dfc9d329ce5265adef09a5356d4/0_315_4928_2956/500.jpg"},"isHosted":false,"pillarId":"pillar/news","pillarName":"News"},{"id":"environment/2023/nov/27/burrup-hub-gas-project-woodside-energy-research","type":"article","sectionId":"environment","sectionName":"Environment","webPublicationDate":"2023-11-27T04:05:08Z","webTitle":"Burrup Hub gas project could release 13 times Australia’s annual carbon emissions, analysis suggests","webUrl":"https://www.theguardian.com/environment/2023/nov/27/burrup-hub-gas-project-woodside-energy-research","apiUrl":"https://content.guardianapis.com/environment/2023/nov/27/burrup-hub-gas-project-woodside-energy-research","fields":{"thumbnail":"https://media.guim.co.uk/ecfce63872db6ca189926a1a371709ff98b47b5a/96_68_4563_2737/500.jpg"},"isHosted":false,"pillarId":"pillar/news","pillarName":"News"},{"id":"environment/2023/sep/19/do-carbon-credit-reduce-emissions-greenhouse-gases","type":"article","sectionId":"environment","sectionName":"Environment","webPublicationDate":"2023-09-19T21:17:22Z","webTitle":"Revealed: top carbon offset projects may not cut planet-heating emissions","webUrl":"https://www.theguardian.com/environment/2023/sep/19/do-carbon-credit-reduce-emissions-greenhouse-gases","apiUrl":"https://content.guardianapis.com/environment/2023/sep/19/do-carbon-credit-reduce-emissions-greenhouse-gases","fields":{"thumbnail":"https://media.guim.co.uk/9098ef11113506dd281c3687633fe45fc3d0bd1b/2_0_4996_3000/500.jpg"},"isHosted":false,"pillarId":"pillar/news","pillarName":"News"}]}